{
	"text_1":[
		{
			"question": "What color was Mrs Dursley's hair?",
			"no":"1",
			"correct_answer": "2",
			"options": [
				{
					"selection": "Black",
					"option_no":"1"
				},
				{
					"selection": "Blonde",
					"option_no":"2"
				},
				{
					"selection": "Brown",
					"option_no":"3"
				}
			]
			
		},
		
		{
			"question": "Which of these extracts is correct?",
			"no":"2",
			"correct_answer": "2",
			"options": [
				{
					"selection": "At half past seven, Mr. Dursley picked up his briefcase, pecked Mrs. Dursley on the cheek, and tried to kiss Dudley good-bye but missed. ",
					"option_no":"1"
				},
				{
					"selection": "At half past eight, Mr. Dursley picked up his briefcase, pecked Mrs. Dursley on the cheek, and tried to kiss Dudley good-bye but missed.",
					"option_no":"2"
				},
				{
					"selection": "At half past nine, Mr. Dursley picked up his briefcase, pecked Mrs. Dursley on the cheek, and tried to kiss Dudley good-bye but missed.",
					"option_no":"3"
				},
				{
					"selection": "None of the above.",
					"option_no":"4"
				}
			]
		},
		{
			"question": "Which of the following extracts is correct?",
			"no":"3",
			"options": [
				{
					"selection": "As he drove toward town he thought of nothing except a large order of drills he was hoping to get that day.",
					"option_no":"1"
				},
				{
					"selection": "As he drove toward work he thought of nothing except a large order of drills he was hoping to get that day.",
					"option_no":"2"
				},
				{
					"selection": "As he drove toward town he thought of nothing except a small order of drills he was due to get that day.",
					"option_no":"3"
				}
			],
			"correct_answer": "1"
		},
		{
			"question": "What breed of owl flutters past the window in the text?",
			"no":"4",
			"options": [
				{
					"selection": "Tawny owl",
					"option_no":"1"
				},
				{
					"selection": "Barn owl",
					"option_no":"2"
				},
				{
					"selection": "Snowy owl",
					"option_no":"3"
				}
			],
			"correct_answer": "1"
		},
		{
			"question": "What firm does Mr. Dursley direct?",
			"no":"5",
			"options": [
				{
					"selection": "Grunnings",
					"option_no":"1"
				},
				{
					"selection": "Gumbings",
					"option_no":"2"
				},
				{
					"selection": "Gambings",
					"option_no":"3"
				}
			],
			"correct_answer": "1"
		},
		{
			"question": "Which of the following extracts is correct?",
			"no":"6",
			"options": [
				{
					"selection": "When Mr. and Mrs. Dursley woke up on the dim, gray Thursday our story starts",
					"option_no":"1"
				},
				{
					"selection": "When Mr. and Mrs. Dursley woke up on the dull, gray Tuesday our story starts",
					"option_no":"2"
				},
				{
					"selection": "When Mr. and Mrs. Dursley woke up on the bleak, gray Friday our story starts",
					"option_no":"3"
				}
			],
			"correct_answer": "2"
		},
		{
			"question": "Where do the Dursley's live?",
			"no":"7",
			"options": [
				{
					"selection": "Number seven, Privet Drive.",
					"option_no":"1"
				},
				{
					"selection": "Number four, Privet Drive.",
					"option_no":"2"
				},
				{
					"selection": "Number three, Privet Drive.",
					"option_no":"3"
				}
			],
			"correct_answer": "2"
		},
		{
			"question": "What was the peculiar thing that Mr. Dursley saw on his way to work?",
			"no":"8",
			"options": [
				{
					"selection": "A dog reading a map",
					"option_no":"1"
				},
				{
					"selection": "A bird reading a map",
					"option_no":"2"
				},
				{
					"selection": "A cat reading a map",
					"option_no":"3"
				}
			],
			"correct_answer": "3"
		},
		{
			"question": "Which floor did Mr. Dursley work on?",
			"no":"9",
			"options": [
				{
					"selection": "The 4th floor",
					"option_no":"1"
				},
				{
					"selection": "The 9th floor",
					"option_no":"2"
				},
				{
					"selection": "The 12th floor",
					"option_no":"3"
				}
			],
			"correct_answer": "2"
		},
		{
			"question": "Where was Mr Dursley headed on his lunchtime break?",
			"no":"10",
			"options": [
				{
					"selection": "Barbers",
					"option_no":"1"
				},
				{
					"selection": "Butchers",
					"option_no":"2"
				},
				{
					"selection": "Bakery",
					"option_no":"3"
				}
			],
			"correct_answer": "3"
		}
			],
	"text_2":[
		{
			"question": "How long was the mysterious object mentioned in the text?",
			"no":"1",
			"options": [
				{
					"selection": "2 Inches",
					"option_no":"1"
				},
				{
					"selection": "3 Inches",
					"option_no":"2"
				},
				{
					"selection": "4 Inches",
					"option_no":"3"
				}
			],
			"correct_answer": "1"
		},
		{
			"question": "What time did harry leave the castle and set off towards the Quidditch field?",
			"no":"2",
			"options": [
				{
					"selection": "6 O'clock",
					"option_no":"1"
				},
				{
					"selection": "7 O'clock",
					"option_no":"2"
				},
				{
					"selection": "8 O'clock",
					"option_no":"3"
				}
			],
			"correct_answer": "2"
		},
		{
			"question": "Which of the following is correct?",
			"no":"3",
			"options": [
				{
					"selection": "Even Harry, who knew nothing about the different brooms, thought it looked wonderful. Sleek and shiny, with a willow handle...",
					"option_no":"1"
				},
				{
					"selection": "Even Harry, who knew nothing about the different brooms, thought it looked wonderful. Sleek and shiny, with a teak handle...",
					"option_no":"2"
				},
				{
					"selection": "Even Harry, who knew nothing about the different brooms, thought it looked wonderful. Sleek and shiny, with a mahogany handle...",
					"option_no":"3"
				}			
				],
			"correct_answer": "3"
		},
		{
			"question": "Which professor interrupted Ron's and Malfoy's argument?",
			"no":"4",
			"options": [
				{
					"selection": "Professor McGonagall",
					"option_no":"1"
				},
				{
					"selection": "Professor Flitwick",
					"option_no":"2"
				},
				{
					"selection": "Professor Snape",
					"option_no":"3"
				}
			],
			"correct_answer": "2"
		},
		{
			"question": "Which of the following is correct?",
			"no":"5",
			"options": [
				{
					"selection": "Harry was just as interested as everyone else to see what was in this large parcel, and was amazed when the owls soared down and dropped it right in front of him, knocking his bacon to the floor.",
					"option_no":"1"
				},
				{
					"selection": "Harry was just as interested as everyone else to see what was in this large parcel, and was amazed when the owls soared down and dropped it right in front of him, knocking his eggs to the floor.",
					"option_no":"2"
				},
				{
					"selection": "Harry was just as interested as everyone else to see what was in this large parcel, and was amazed when the owls soared down and dropped it right in front of him, knocking his beans to the floor.",
					"option_no":"3"
				}
			],
			"correct_answer": "1"
		},
		{
			"question": "Which of the following is correct?",
			"no":"6",
			"options": [
				{
					"selection": "Hermione marched away with her nose in the air.",
					"option_no":"1"
				},
				{
					"selection": "Hermione marched away with her hands in her pockets.",
					"option_no":"2"
				},
				{
					"selection": "Hermione marched away with her hands to her head.",
					"option_no":"3"
				}
			],
			"correct_answer": "1"
		},
		{
			"question": "Who was meeting Harry for his first quidditch training session?",
			"no":"7",
			"options": [
				{
					"selection": "Fred Weasley",
					"option_no":"1"
				},
				{
					"selection": "Oliver Wood",
					"option_no":"2"
				},
				{
					"selection": "Cormac McLaggen",
					"option_no":"3"
				}
			],
			"correct_answer": "2"
		},
		{
			"question": "Which of the following quotes from Harry is correct?",
			"no":"8",
			"options": [
				{
					"selection": "\"If he hadn't stolen Neville's Remembrall I wouldn't be on the team....\"",
					"option_no":"1"
				},
				{
					"selection": "\"If he hadn't stolen Neville's Wand I wouldn't be on the team....\"",
					"option_no":"2"
				},
				{
					"selection": "\"If he hadn't stolen Neville's Package I wouldn't be on the team....\"",
					"option_no":"3"
				}
			],
			"correct_answer": "1"
		},
		{
			"question": "Which broomstick does Malfoy own?",
			"no":"9",
			"options": [
				{
					"selection": "Firebolt Supreme",
					"option_no":"1"
				},
				{
					"selection": "Shooting Star",
					"option_no":"2"
				},
				{
					"selection": "Comet 260",
					"option_no":"3"
				}
			],
			"correct_answer": "3"
		},
		{
			"question": "Which of the following is correct?",
			"no":"10",
			"options": [
				{
					"selection": "As the owls flooded into the Great Hall as usual, everyone's attention was caught at once by a long, thin package carried by six large screech owls.",
					"option_no":"1"
				},
				{
					"selection": "As the owls flooded into the Great Hall as usual, everyone's attention was caught at once by a long, thin package carried by six large tawny owls.",
					"option_no":"2"
				},
				{
					"selection": "As the owls flooded into the Great Hall as usual, everyone's attention was caught at once by a long, thin package carried by six large snowy owls.",
					"option_no":"3"
				}
			],
			"correct_answer": "1"
		}
	],
	"text_3":[
		{
			"question": "Which of the following is the correct statement?",
			"no":"1",
			"options": [
				{
					"selection": "Harry kept to his room, with his new owl for company. He had decided to call her Hedwig, a name he had found in A History of Magic.",
					"option_no":"1"
				},
				{
					"selection": "Harry kept to his room, with his new owl for company. He had decided to call her Hedwig, a name he had found in A History of Owls.",
					"option_no":"2"
				},
				{
					"selection": "Harry kept to his room, with his new owl for company. He had decided to call her Hedwig, a name he had found in A History of Muggles.",
					"option_no":"3"
				}
			],
			"correct_answer": "1"
		},
		{
			"question": "What did Dudley do when Harry came into the room and cleared his throat to let the Dursley's know he was there?",
			"no":"2",
			"options": [
				{
					"selection": "Continue to watch TV",
					"option_no":"1"
				},
				{
					"selection": "Scream and run from the room",
					"option_no":"2"
				},
				{
					"selection": "Try to stay quiet and stay out of harry's way",
					"option_no":"3"
				}
			],
			"correct_answer": "2"
		},
		{
			"question": "What method of transport did Mr. Dursley suggest instead of a train?",
			"no":"3",
			"options": [
				{
					"selection": "A flying car",
					"option_no":"1"
				},
				{
					"selection": "A magic carpet",
					"option_no":"2"
				},
				{
					"selection": "A magical bus",
					"option_no":"3"
				}
			],
			"correct_answer": "2"
		},
		{
			"question": "What did Dudley need to go to london for?",
			"no":"4",
			"options": [
				{
					"selection": "To get the tail removed",
					"option_no":"1"
				},
				{
					"selection": "To go to smeltings",
					"option_no":"2"
				},
				{
					"selection": "To see Harry off",
					"option_no":"3"
				}
			],
			"correct_answer": "1"
		},
		{
			"question": "Which of the following statements is correct?",
			"no":"5",
			"options": [
				{
					"selection": "\"Have a good term,\" said Uncle Vernon with an even nastier smile",
					"option_no":"1"
				},
				{
					"selection": "\"And don't come Back!\" said Uncle Vernon with an even nastier smile",
					"option_no":"2"
				},
				{
					"selection": "\"Have a good term,\" said Aunt Petunia with an even nastier smile",
					"option_no":"3"
				}
			],
			"correct_answer": "1"
		},
		{
			"question": "How long did Harry have to find platform nine and three quarters?",
			"no":"6",
			"options": [
				{
					"selection": "20 minutes",
					"option_no":"1"
				},
				{
					"selection": "5 minutes",
					"option_no":"2"
				},
				{
					"selection": "10 minutes",
					"option_no":"3"
				}
			],
			"correct_answer": "3"
		},
		{
			"question": "What was Harry stuck with on the platform?",
			"no":"7",
			"options": [
				{
					"selection": "a trunk he could hardly lift, a pocket full of wizard money, and a large owl. ",
					"option_no":"1"
				},
				{
					"selection": "a suitcase he could hardly lift, a pocket full of wizard money, and a large owl.",
					"option_no":"2"
				},
				{
					"selection": "a trunk he could hardly lift, a bag full of money, and a large owl.",
					"option_no":"3"
				}
			],
			"correct_answer": "1"
		},
		{
			"question": "Why was Harry starting to attract a lot of \"funny looks\"?",
			"no":"8",
			"options": [
				{
					"selection": "His questions about platform nine and three quarters",
					"option_no":"1"
				},
				{
					"selection": "His Hogwarts uniform",
					"option_no":"2"
				},
				{
					"selection": "His Owl",
					"option_no":"3"
				}
			],
			"correct_answer": "3"
		},
		{
			"question": "On the final day of what month did Harry speak to his aunt and uncle about getting to King's Cross station?",
			"no":"9",
			"options": [
				{
					"selection": "October",
					"option_no":"1"
				},
				{
					"selection": "June",
					"option_no":"2"
				},
				{
					"selection": "August",
					"option_no":"3"
				}
			],
			"correct_answer": "3"
		},
		{
			"question": "Which on of the following statements is correct?",
			"no":"10",
			"options": [
				{
					"selection": "His textbooks were very interesting. He sat in his chair reading late into the night, Hedwig swooping in and out of the open window as she pleased.",
					"option_no":"1"
				},
				{
					"selection": "His school books were very interesting. He lay on his bed reading late into the night, Hedwig trying to escape out of the open window as she pleased.",
					"option_no":"2"
				},
				{
					"selection": "His school books were very interesting. He lay on his bed reading late into the night, Hedwig swooping in and out of the open window as she pleased. ",
					"option_no":"3"
				}
			],
			"correct_answer": "3"
		}
	]
}